%YAML 1.1
%TAG !u! tag:unity3d.com,2011:
--- !u!114 &11400000
MonoBehaviour:
  m_ObjectHideFlags: 0
  m_CorrespondingSourceObject: {fileID: 0}
  m_PrefabInternal: {fileID: 0}
  m_GameObject: {fileID: 0}
  m_Enabled: 1
  m_EditorHideFlags: 0
  m_Script: {fileID: 11500000, guid: 7a686a47eee2fa44cb0a34b5d86e4d5e, type: 3}
  m_Name: BehaviourTree
  m_EditorClassIdentifier: 
  _serializedGraph: '{"version":2.85,"type":"NodeCanvas.BehaviourTrees.BehaviourTree","translation":{"x":-5200.0,"y":-5092.0},"zoomFactor":0.9999825,"nodes":[{"_condition":{"valueA":{"_name":"realtimeSinceStartup","_targetVariableID":"e669536d-886b-4788-b0fa-8220644420a5"},"checkType":"GreaterThan","valueB":{"_value":1.0},"$type":"NodeCanvas.Tasks.Conditions.CheckFloat"},"_position":{"x":5443.0,"y":4466.0},"$type":"NodeCanvas.BehaviourTrees.WaitUntil","$id":"2"},{"repeaterMode":"RepeatForever","repeatTimes":{"_value":1},"_position":{"x":5484.0,"y":4588.0},"$type":"NodeCanvas.BehaviourTrees.Repeater","$id":"6"},{"_position":{"x":5225.0,"y":4749.0},"$type":"NodeCanvas.BehaviourTrees.Sequencer","$id":"8"},{"_condition":{"valueA":{"_name":"is_broken","_targetVariableID":"0c7c3e95-2e1a-43e4-9b07-7d8094380154"},"valueB":{},"$type":"NodeCanvas.Tasks.Conditions.CheckBoolean"},"_position":{"x":5021.0,"y":4859.0},"$type":"NodeCanvas.BehaviourTrees.ConditionNode","$id":"9"},{"_position":{"x":5609.0,"y":4804.0},"$type":"NodeCanvas.BehaviourTrees.Selector","$id":"13"},{"_position":{"x":5335.0,"y":4908.0},"$type":"NodeCanvas.BehaviourTrees.Inverter","$id":"14"},{"_condition":{"checkMode":"AnyTrueSuffice","conditions":[{"valueA":{"_name":"local_is_day","_targetVariableID":"f6aa75de-e5cd-4bc8-bc92-441caf9944d9"},"valueB":{"_value":true},"$type":"NodeCanvas.Tasks.Conditions.CheckBoolean"},{"valueA":{"_name":"lighthouse_active","_targetVariableID":"b983a7f9-05c5-42e2-af4f-fe5918731102"},"valueB":{"_value":true},"$type":"NodeCanvas.Tasks.Conditions.CheckBoolean"}],"$type":"NodeCanvas.Framework.ConditionList"},"_position":{"x":5208.0,"y":4997.0},"$type":"NodeCanvas.BehaviourTrees.ConditionNode","$id":"15"},{"dynamic":true,"_position":{"x":5499.0,"y":5059.0},"$type":"NodeCanvas.BehaviourTrees.Parallel","$id":"24"},{"_condition":{"valueA":{"_name":"is_broken","_targetVariableID":"0c7c3e95-2e1a-43e4-9b07-7d8094380154"},"valueB":{},"$type":"NodeCanvas.Tasks.Conditions.CheckBoolean"},"_position":{"x":5177.0,"y":5248.0},"$type":"NodeCanvas.BehaviourTrees.ConditionNode","$id":"25"},{"_condition":{"checkMode":"AnyTrueSuffice","conditions":[{"valueA":{"_name":"local_is_day","_targetVariableID":"f6aa75de-e5cd-4bc8-bc92-441caf9944d9"},"valueB":{"_value":true},"$type":"NodeCanvas.Tasks.Conditions.CheckBoolean"},{"valueA":{"_name":"lighthouse_active","_targetVariableID":"b983a7f9-05c5-42e2-af4f-fe5918731102"},"valueB":{"_value":true},"$type":"NodeCanvas.Tasks.Conditions.CheckBoolean"}],"$type":"NodeCanvas.Framework.ConditionList"},"_position":{"x":5223.0,"y":5380.0},"$type":"NodeCanvas.BehaviourTrees.ConditionNode","$id":"29"},{"_position":{"x":5698.0,"y":5321.0},"$type":"NodeCanvas.BehaviourTrees.Sequencer","$id":"38"},{"_position":{"x":5658.0,"y":5404.0},"$type":"NodeCanvas.BehaviourTrees.Sequencer","$id":"39"},{"_position":{"x":5512.0,"y":5464.0},"$type":"NodeCanvas.BehaviourTrees.Sequencer","$id":"40"},{"_action":{"$type":"NodeCanvas.Tasks.Actions.TryToBreak"},"_position":{"x":5248.0,"y":5607.0},"$type":"NodeCanvas.BehaviourTrees.ActionNode","$id":"41"},{"_action":{"$type":"NodeCanvas.Tasks.Actions.SetPathfindingDestination"},"_position":{"x":5397.0,"y":5609.0},"$type":"NodeCanvas.BehaviourTrees.ActionNode","$id":"43"},{"_position":{"x":5633.0,"y":5543.0},"$type":"NodeCanvas.BehaviourTrees.Inverter","$id":"45"},{"dynamic":true,"_position":{"x":5654.0,"y":5608.0},"$type":"NodeCanvas.BehaviourTrees.Parallel","$id":"46"},{"_action":{"actions":[{"$type":"NodeCanvas.Tasks.Actions.SetBGCurve"},{"$type":"NodeCanvas.Tasks.Actions.Activate_FollowPath"}],"$type":"NodeCanvas.Framework.ActionList"},"_position":{"x":5543.0,"y":5726.0},"$type":"NodeCanvas.BehaviourTrees.ActionNode","$id":"47"},{"_action":{"$type":"NodeCanvas.Tasks.Actions.TryToFish"},"_position":{"x":5630.0,"y":5880.0},"$type":"NodeCanvas.BehaviourTrees.ActionNode","$id":"52"},{"_position":{"x":5771.0,"y":5724.0},"$type":"NodeCanvas.BehaviourTrees.Inverter","$id":"54"},{"_condition":{"valueA":{"_name":"has_fish","_targetVariableID":"c40c88dd-679f-4f3b-8c94-51527976e26d"},"valueB":{"_value":true},"$type":"NodeCanvas.Tasks.Conditions.CheckBoolean"},"_position":{"x":5745.0,"y":5803.0},"$type":"NodeCanvas.BehaviourTrees.ConditionNode","$id":"55"},{"_action":{"$type":"NodeCanvas.Tasks.Actions.GoToHome"},"_position":{"x":5745.0,"y":5511.0},"$type":"NodeCanvas.BehaviourTrees.ActionNode","$id":"59"},{"_position":{"x":5992.0,"y":5438.0},"$type":"NodeCanvas.BehaviourTrees.Sequencer","$id":"61"},{"_condition":{"valueA":{"_name":"has_fish","_targetVariableID":"c40c88dd-679f-4f3b-8c94-51527976e26d"},"valueB":{"_value":true},"$type":"NodeCanvas.Tasks.Conditions.CheckBoolean"},"_position":{"x":5923.0,"y":5643.0},"$type":"NodeCanvas.BehaviourTrees.ConditionNode","$id":"62"},{"_action":{"$type":"NodeCanvas.Tasks.Actions.Boat_Deliver_Fish"},"_position":{"x":6050.0,"y":5562.0},"$type":"NodeCanvas.BehaviourTrees.ActionNode","$id":"66"},{"_action":{"$type":"NodeCanvas.Tasks.Actions.GoToHome"},"_position":{"x":5797.0,"y":5094.0},"$type":"NodeCanvas.BehaviourTrees.ActionNode","$id":"68"}],"connections":[{"_sourceNode":{"$ref":"2"},"_targetNode":{"$ref":"6"},"$type":"NodeCanvas.BehaviourTrees.BTConnection"},{"_sourceNode":{"$ref":"6"},"_targetNode":{"$ref":"8"},"$type":"NodeCanvas.BehaviourTrees.BTConnection"},{"_sourceNode":{"$ref":"8"},"_targetNode":{"$ref":"9"},"$type":"NodeCanvas.BehaviourTrees.BTConnection"},{"_sourceNode":{"$ref":"8"},"_targetNode":{"$ref":"13"},"$type":"NodeCanvas.BehaviourTrees.BTConnection"},{"_sourceNode":{"$ref":"13"},"_targetNode":{"$ref":"14"},"$type":"NodeCanvas.BehaviourTrees.BTConnection"},{"_sourceNode":{"$ref":"13"},"_targetNode":{"$ref":"24"},"$type":"NodeCanvas.BehaviourTrees.BTConnection"},{"_sourceNode":{"$ref":"13"},"_targetNode":{"$ref":"68"},"$type":"NodeCanvas.BehaviourTrees.BTConnection"},{"_sourceNode":{"$ref":"14"},"_targetNode":{"$ref":"15"},"$type":"NodeCanvas.BehaviourTrees.BTConnection"},{"_sourceNode":{"$ref":"24"},"_targetNode":{"$ref":"25"},"$type":"NodeCanvas.BehaviourTrees.BTConnection"},{"_sourceNode":{"$ref":"24"},"_targetNode":{"$ref":"29"},"$type":"NodeCanvas.BehaviourTrees.BTConnection"},{"_sourceNode":{"$ref":"24"},"_targetNode":{"$ref":"38"},"$type":"NodeCanvas.BehaviourTrees.BTConnection"},{"_sourceNode":{"$ref":"38"},"_targetNode":{"$ref":"39"},"$type":"NodeCanvas.BehaviourTrees.BTConnection"},{"_sourceNode":{"$ref":"38"},"_targetNode":{"$ref":"61"},"$type":"NodeCanvas.BehaviourTrees.BTConnection"},{"_sourceNode":{"$ref":"39"},"_targetNode":{"$ref":"40"},"$type":"NodeCanvas.BehaviourTrees.BTConnection"},{"_sourceNode":{"$ref":"39"},"_targetNode":{"$ref":"45"},"$type":"NodeCanvas.BehaviourTrees.BTConnection"},{"_sourceNode":{"$ref":"39"},"_targetNode":{"$ref":"59"},"$type":"NodeCanvas.BehaviourTrees.BTConnection"},{"_sourceNode":{"$ref":"40"},"_targetNode":{"$ref":"41"},"$type":"NodeCanvas.BehaviourTrees.BTConnection"},{"_sourceNode":{"$ref":"40"},"_targetNode":{"$ref":"43"},"$type":"NodeCanvas.BehaviourTrees.BTConnection"},{"_sourceNode":{"$ref":"45"},"_targetNode":{"$ref":"46"},"$type":"NodeCanvas.BehaviourTrees.BTConnection"},{"_sourceNode":{"$ref":"46"},"_targetNode":{"$ref":"47"},"$type":"NodeCanvas.BehaviourTrees.BTConnection"},{"_sourceNode":{"$ref":"46"},"_targetNode":{"$ref":"52"},"$type":"NodeCanvas.BehaviourTrees.BTConnection"},{"_sourceNode":{"$ref":"46"},"_targetNode":{"$ref":"54"},"$type":"NodeCanvas.BehaviourTrees.BTConnection"},{"_sourceNode":{"$ref":"54"},"_targetNode":{"$ref":"55"},"$type":"NodeCanvas.BehaviourTrees.BTConnection"},{"_sourceNode":{"$ref":"61"},"_targetNode":{"$ref":"62"},"$type":"NodeCanvas.BehaviourTrees.BTConnection"},{"_sourceNode":{"$ref":"61"},"_targetNode":{"$ref":"66"},"$type":"NodeCanvas.BehaviourTrees.BTConnection"}],"primeNode":{"$ref":"2"},"localBlackboard":{"_name":"Local
    Blackboard","_variables":{}},"derivedData":{"repeat":true,"$type":"NodeCanvas.BehaviourTrees.BehaviourTree+DerivedSerializationData"}}'
  _objectReferences: []
  _deserializationFailed: 0
  repeat: 1
  updateInterval: 0
