%YAML 1.1
%TAG !u! tag:unity3d.com,2011:
--- !u!114 &11400000
MonoBehaviour:
  m_ObjectHideFlags: 0
  m_CorrespondingSourceObject: {fileID: 0}
  m_PrefabInternal: {fileID: 0}
  m_GameObject: {fileID: 0}
  m_Enabled: 1
  m_EditorHideFlags: 0
  m_Script: {fileID: 11500000, guid: f945e777233a59f4aba40aeca29093a6, type: 3}
  m_Name: forklift fsm
  m_EditorClassIdentifier: 
  _serializedGraph: '{"version":2.85,"type":"NodeCanvas.StateMachines.FSM","translation":{"x":-3112.0,"y":-2818.0},"zoomFactor":0.6051458,"nodes":[{"_actionList":{"executionMode":"ActionsRunInParallel","actions":[{"$type":"NodeCanvas.Tasks.Actions.GoToHome"}]},"_position":{"x":5336.0,"y":5323.0},"_name":"Day","$type":"NodeCanvas.StateMachines.ActionState","$id":"2"},{"_actionList":{"executionMode":"ActionsRunInParallel","actions":[{"$type":"NodeCanvas.Tasks.Actions.SetForkliftDestination"}]},"_position":{"x":5481.0,"y":5406.0},"_name":"Set
    Forklift Destination","$type":"NodeCanvas.StateMachines.ActionState","$id":"6"},{"_actionList":{"executionMode":"ActionsRunInParallel","actions":[{"$type":"NodeCanvas.Tasks.Actions.Activate_Pathfinding"}]},"_position":{"x":5672.0,"y":5307.0},"_name":"Go
    to Dock","$type":"NodeCanvas.StateMachines.ActionState","$id":"10"},{"_actionList":{"executionMode":"ActionsRunInParallel","actions":[{"$type":"NodeCanvas.Tasks.Actions.ForkliftRetrieveMaterials"}]},"_position":{"x":5766.0,"y":5196.0},"_name":"Take
    Materials","$type":"NodeCanvas.StateMachines.ActionState","$id":"14"},{"_actionList":{"executionMode":"ActionsRunInParallel","actions":[{"$type":"NodeCanvas.Tasks.Actions.SetForkliftDestination"}]},"_position":{"x":5596.0,"y":5087.0},"_name":"Deliver
    Materials","$type":"NodeCanvas.StateMachines.ActionState","$id":"18"},{"_actionList":{"actions":[{"$type":"NodeCanvas.Tasks.Actions.Activate_Pathfinding"},{"boolVariable":{"_name":"assigned","_targetVariableID":"7bbfbeea-a753-49cf-b013-3ac1f43d4fb5"},"setTo":"False","$type":"NodeCanvas.Tasks.Actions.SetBoolean"}]},"_position":{"x":5470.0,"y":5208.0},"_name":"Go
    to delivery Zone","$type":"NodeCanvas.StateMachines.ActionState","$id":"22"},{"_actionList":{"executionMode":"ActionsRunInParallel","actions":[{"$type":"NodeCanvas.Tasks.Actions.GoToHome"}]},"_position":{"x":5156.0,"y":5421.0},"_name":"Night","_tag":"","$type":"NodeCanvas.StateMachines.ActionState","$id":"28"}],"connections":[{"_condition":{"valueA":{"_name":"assigned","_targetVariableID":"7bbfbeea-a753-49cf-b013-3ac1f43d4fb5"},"valueB":{"_value":true},"$type":"NodeCanvas.Tasks.Conditions.CheckBoolean"},"_sourceNode":{"$ref":"2"},"_targetNode":{"$ref":"6"},"$type":"NodeCanvas.StateMachines.FSMConnection"},{"_condition":{"valueA":{"_name":"local_is_day","_targetVariableID":"0419726b-5d13-4f63-97b8-b6ce6f718a7a"},"valueB":{},"$type":"NodeCanvas.Tasks.Conditions.CheckBoolean"},"_sourceNode":{"$ref":"2"},"_targetNode":{"$ref":"28"},"$type":"NodeCanvas.StateMachines.FSMConnection"},{"_sourceNode":{"$ref":"6"},"_targetNode":{"$ref":"10"},"$type":"NodeCanvas.StateMachines.FSMConnection"},{"_sourceNode":{"$ref":"10"},"_targetNode":{"$ref":"14"},"$type":"NodeCanvas.StateMachines.FSMConnection"},{"_sourceNode":{"$ref":"14"},"_targetNode":{"$ref":"18"},"$type":"NodeCanvas.StateMachines.FSMConnection"},{"_sourceNode":{"$ref":"18"},"_targetNode":{"$ref":"22"},"$type":"NodeCanvas.StateMachines.FSMConnection"},{"_sourceNode":{"$ref":"22"},"_targetNode":{"$ref":"2"},"$type":"NodeCanvas.StateMachines.FSMConnection"},{"_condition":{"valueA":{"_name":"local_is_day","_targetVariableID":"0419726b-5d13-4f63-97b8-b6ce6f718a7a"},"valueB":{"_value":true},"$type":"NodeCanvas.Tasks.Conditions.CheckBoolean"},"_sourceNode":{"$ref":"28"},"_targetNode":{"$ref":"2"},"$type":"NodeCanvas.StateMachines.FSMConnection"}],"primeNode":{"$ref":"2"},"localBlackboard":{"_name":"Local
    Blackboard","_variables":{}}}'
  _objectReferences: []
  _deserializationFailed: 0
