%YAML 1.1
%TAG !u! tag:unity3d.com,2011:
--- !u!114 &11400000
MonoBehaviour:
  m_ObjectHideFlags: 0
  m_CorrespondingSourceObject: {fileID: 0}
  m_PrefabInternal: {fileID: 0}
  m_GameObject: {fileID: 0}
  m_Enabled: 1
  m_EditorHideFlags: 0
  m_Script: {fileID: 11500000, guid: f945e777233a59f4aba40aeca29093a6, type: 3}
  m_Name: FSM
  m_EditorClassIdentifier: 
  _serializedGraph: '{"version":2.85,"type":"NodeCanvas.StateMachines.FSM","translation":{"x":-3518.0,"y":-3714.0},"zoomFactor":0.7499893,"nodes":[{"_actionList":{"executionMode":"ActionsRunInParallel","actions":[]},"_position":{"x":5230.0,"y":5342.0},"_name":"Day","$type":"NodeCanvas.StateMachines.ActionState","$id":"2"},{"_nestedBT":{"_value":1},"executionMode":"Once","_position":{"x":5385.0,"y":5490.0},"$type":"NodeCanvas.StateMachines.NestedBTState","$id":"5"},{"_actionList":{"executionMode":"ActionsRunInParallel","actions":[{"$type":"NodeCanvas.Tasks.Actions.GoToHome"}]},"_position":{"x":5593.0,"y":5269.0},"_name":"Night","_comment":"N","$type":"NodeCanvas.StateMachines.ActionState","$id":"7"}],"connections":[{"_condition":{"valueA":{"_name":"is_broken","_targetVariableID":"0c7c3e95-2e1a-43e4-9b07-7d8094380154"},"valueB":{},"$type":"NodeCanvas.Tasks.Conditions.CheckBoolean"},"_sourceNode":{"$ref":"2"},"_targetNode":{"$ref":"5"},"$type":"NodeCanvas.StateMachines.FSMConnection"},{"_condition":{"valueA":{"_name":"is_broken","_targetVariableID":"0c7c3e95-2e1a-43e4-9b07-7d8094380154"},"valueB":{"_value":true},"$type":"NodeCanvas.Tasks.Conditions.CheckBoolean"},"_sourceNode":{"$ref":"2"},"_targetNode":{"$ref":"7"},"$type":"NodeCanvas.StateMachines.FSMConnection"},{"_condition":{"conditions":[{"valueA":{"_name":"lighthouse_active","_targetVariableID":"b983a7f9-05c5-42e2-af4f-fe5918731102"},"valueB":{"_value":true},"$type":"NodeCanvas.Tasks.Conditions.CheckBoolean"},{"valueA":{"_name":"local_is_day","_targetVariableID":"f6aa75de-e5cd-4bc8-bc92-441caf9944d9"},"valueB":{"_value":true},"$type":"NodeCanvas.Tasks.Conditions.CheckBoolean"}],"$type":"NodeCanvas.Framework.ConditionList"},"_sourceNode":{"$ref":"5"},"_targetNode":{"$ref":"2"},"$type":"NodeCanvas.StateMachines.FSMConnection"},{"_sourceNode":{"$ref":"5"},"_targetNode":{"$ref":"7"},"$type":"NodeCanvas.StateMachines.FSMConnection"},{"_condition":{"valueA":{"_name":"local_is_day","_targetVariableID":"f6aa75de-e5cd-4bc8-bc92-441caf9944d9"},"valueB":{"_value":true},"$type":"NodeCanvas.Tasks.Conditions.CheckBoolean"},"_sourceNode":{"$ref":"7"},"_targetNode":{"$ref":"2"},"$type":"NodeCanvas.StateMachines.FSMConnection"},{"_condition":{"conditions":[{"valueA":{"_name":"lighthouse_active","_targetVariableID":"b983a7f9-05c5-42e2-af4f-fe5918731102"},"valueB":{"_value":true},"$type":"NodeCanvas.Tasks.Conditions.CheckBoolean"},{"valueA":{"_name":"local_is_day","_targetVariableID":"f6aa75de-e5cd-4bc8-bc92-441caf9944d9"},"valueB":{},"$type":"NodeCanvas.Tasks.Conditions.CheckBoolean"}],"$type":"NodeCanvas.Framework.ConditionList"},"_sourceNode":{"$ref":"7"},"_targetNode":{"$ref":"5"},"$type":"NodeCanvas.StateMachines.FSMConnection"}],"primeNode":{"$ref":"2"},"localBlackboard":{"_name":"Local
    Blackboard","_variables":{}}}'
  _objectReferences:
  - {fileID: 0}
  - {fileID: 11400000, guid: 937948d5c0b1d8e4f8f1dc1f2b78f2ba, type: 2}
  _deserializationFailed: 0
