%YAML 1.1
%TAG !u! tag:unity3d.com,2011:
--- !u!114 &11400000
MonoBehaviour:
  m_ObjectHideFlags: 0
  m_CorrespondingSourceObject: {fileID: 0}
  m_PrefabInternal: {fileID: 0}
  m_GameObject: {fileID: 0}
  m_Enabled: 1
  m_EditorHideFlags: 0
  m_Script: {fileID: 11500000, guid: f945e777233a59f4aba40aeca29093a6, type: 3}
  m_Name: worker fsm
  m_EditorClassIdentifier: 
  _serializedGraph: '{"version":2.85,"type":"NodeCanvas.StateMachines.FSM","translation":{"x":-4743.0,"y":-5351.0},"nodes":[{"_actionList":{"executionMode":"ActionsRunInParallel","actions":[]},"_position":{"x":5141.0,"y":5488.0},"_name":"Day","$type":"NodeCanvas.StateMachines.ActionState","$id":"2"},{"_nestedBT":{"_value":1},"_position":{"x":5362.0,"y":5638.0},"$type":"NodeCanvas.StateMachines.NestedBTState","$id":"5"}],"connections":[{"_condition":{"valueA":{"_name":"assigned","_targetVariableID":"31d09a26-95a3-4506-947f-b3ecfc2e9c08"},"valueB":{"_value":true},"$type":"NodeCanvas.Tasks.Conditions.CheckBoolean"},"_sourceNode":{"$ref":"2"},"_targetNode":{"$ref":"5"},"$type":"NodeCanvas.StateMachines.FSMConnection"},{"_sourceNode":{"$ref":"5"},"_targetNode":{"$ref":"2"},"$type":"NodeCanvas.StateMachines.FSMConnection"}],"primeNode":{"$ref":"2"},"localBlackboard":{"_name":"Local
    Blackboard","_variables":{}}}'
  _objectReferences:
  - {fileID: 0}
  - {fileID: 11400000, guid: a00afae65e86382479b16d3ceb993fc6, type: 2}
  _deserializationFailed: 0
